[
    {"category": "status", "code": "A", "desc": "Active" },
    {"category": "status","code": "IA", "desc": "Inactive" },
    {"category": "gender","code": "F", "desc": "Female" },
    {"category": "gender","code": "M", "desc": "Male" },
    {"category": "grade","code": "F", "desc": "FAIL" }
]